<?xml version="1.0" encoding="UTF-8"?>
<svg width="98px" height="98px" viewBox="0 0 98 98" version="1.1" xmlns="http://www.w3.org/2000/svg" xmlns:xlink="http://www.w3.org/1999/xlink">
    <!-- Generator: Sketch 50.2 (55047) - http://www.bohemiancoding.com/sketch -->
    <title>6B Copy 5</title>
    <desc>Created with Sketch.</desc>
    <defs></defs>
    <g id="Page-1" stroke="none" stroke-width="1" fill="none" fill-rule="evenodd">
        <g id="MSCC-Iphone-6" transform="translate(-1033.000000, -364.000000)">
            <g id="6B-Copy-5" transform="translate(1035.000000, 366.000000)">
                <circle id="Oval" stroke="#7D4D9F" stroke-width="5" fill="#4B2D82" fill-rule="nonzero" cx="47" cy="47" r="46.501"></circle>
                <path d="M23.44,69 L23.44,62.22 L30.94,62.22 L30.94,29.82 L25.06,29.82 L25.06,22.68 L39.28,22.68 L39.28,62.22 L46.42,62.22 L46.42,69 L23.44,69 Z M48.82,69 L48.82,62.22 L56.32,62.22 L56.32,29.82 L50.44,29.82 L50.44,22.68 L64.66,22.68 L64.66,62.22 L71.8,62.22 L71.8,69 L48.82,69 Z" id="11" fill="#FFFFFF"></path>
            </g>
        </g>
    </g>
</svg>