<?xml version="1.0" encoding="UTF-8"?>
<svg width="98px" height="98px" viewBox="0 0 98 98" version="1.1" xmlns="http://www.w3.org/2000/svg" xmlns:xlink="http://www.w3.org/1999/xlink">
    <!-- Generator: Sketch 50.2 (55047) - http://www.bohemiancoding.com/sketch -->
    <title>6O Copy 6</title>
    <desc>Created with Sketch.</desc>
    <defs></defs>
    <g id="Page-1" stroke="none" stroke-width="1" fill="none" fill-rule="evenodd">
        <g id="MSCC-Iphone-6" transform="translate(-1223.000000, -191.000000)">
            <g id="6O-Copy-6" transform="translate(1225.000000, 193.000000)">
                <circle id="Oval" stroke="#EE3224" stroke-width="5" fill="#EF8922" fill-rule="nonzero" cx="47" cy="47" r="46.501"></circle>
                <path d="M19.44,69 L19.44,62.22 L26.94,62.22 L26.94,29.82 L21.06,29.82 L21.06,22.68 L35.28,22.68 L35.28,62.22 L42.42,62.22 L42.42,69 L19.44,69 Z M46.32,69 L46.32,59.52 C46.32,39.9 64.68,46.5 64.68,34.8 C64.68,31.56 63.18,29.82 59.88,29.82 C56.4,29.82 54.84,30.9 54.84,36.3 L46.56,36.3 C46.56,27.06 50.4,22.5 59.94,22.5 C69.06,22.5 72.96,27.78 72.96,34.68 C72.96,54.42 54.6,45.24 54.6,59.34 L54.6,60.84 L72.3,60.84 L72.3,69 L46.32,69 Z" id="12" fill="#FFFFFF"></path>
            </g>
        </g>
    </g>
</svg>