<?xml version="1.0" encoding="UTF-8"?>
<svg width="98px" height="98px" viewBox="0 0 98 98" version="1.1" xmlns="http://www.w3.org/2000/svg" xmlns:xlink="http://www.w3.org/1999/xlink">
    <!-- Generator: Sketch 50.2 (55047) - http://www.bohemiancoding.com/sketch -->
    <title>6W Copy 6</title>
    <desc>Created with Sketch.</desc>
    <defs></defs>
    <g id="Page-1" stroke="none" stroke-width="1" fill="none" fill-rule="evenodd">
        <g id="MSCC-Iphone-6" transform="translate(-1223.000000, -33.000000)">
            <g id="6W-Copy-6" transform="translate(1225.000000, 35.000000)">
                <circle id="Oval" stroke="#63308D" stroke-width="5" fill="#FFFFFF" fill-rule="nonzero" cx="47" cy="47" r="46.501"></circle>
                <path d="M19.44,70 L19.44,63.22 L26.94,63.22 L26.94,30.82 L21.06,30.82 L21.06,23.68 L35.28,23.68 L35.28,63.22 L42.42,63.22 L42.42,70 L19.44,70 Z M46.32,70 L46.32,60.52 C46.32,40.9 64.68,47.5 64.68,35.8 C64.68,32.56 63.18,30.82 59.88,30.82 C56.4,30.82 54.84,31.9 54.84,37.3 L46.56,37.3 C46.56,28.06 50.4,23.5 59.94,23.5 C69.06,23.5 72.96,28.78 72.96,35.68 C72.96,55.42 54.6,46.24 54.6,60.34 L54.6,61.84 L72.3,61.84 L72.3,70 L46.32,70 Z" id="12" fill="#63308D"></path>
            </g>
        </g>
    </g>
</svg>