<?xml version="1.0" encoding="utf-8"?>
<!-- Generator: Adobe Illustrator 16.0.0, SVG Export Plug-In . SVG Version: 6.00 Build 0)  -->
<!DOCTYPE svg PUBLIC "-//W3C//DTD SVG 1.1//EN" "http://www.w3.org/Graphics/SVG/1.1/DTD/svg11.dtd">
<svg version="1.1" id="Layer_1" xmlns="http://www.w3.org/2000/svg" xmlns:xlink="http://www.w3.org/1999/xlink" x="0px" y="0px"
	 width="105px" height="105px" viewBox="0 0 100 100" enable-background="new 0 0 100 100" xml:space="preserve">
<circle fill="#EF8922" stroke="#EE3224" stroke-width="5" stroke-miterlimit="10" cx="50" cy="50" r="46.501"/>
<g>
	<path fill="#FFFFFF" d="M36.723,59.662c0-19.875,18.598-13.189,18.598-25.04c0-3.282-1.52-5.044-4.863-5.044
		c-3.524,0-5.104,1.094-5.104,6.564h-8.387c0-9.36,3.89-13.979,13.553-13.979c9.237,0,13.188,5.348,13.188,12.337
		c0,19.996-18.597,10.696-18.597,24.978v1.52h17.929v8.266H36.723V59.662z"/>
</g>
<g>
</g>
<g>
</g>
<g>
</g>
<g>
</g>
<g>
</g>
<g>
</g>
</svg>
