<?xml version="1.0" encoding="utf-8"?>
<!-- Generator: Adobe Illustrator 16.0.0, SVG Export Plug-In . SVG Version: 6.00 Build 0)  -->
<!DOCTYPE svg PUBLIC "-//W3C//DTD SVG 1.1//EN" "http://www.w3.org/Graphics/SVG/1.1/DTD/svg11.dtd">
<svg version="1.1" id="Layer_1" xmlns="http://www.w3.org/2000/svg" xmlns:xlink="http://www.w3.org/1999/xlink" x="0px" y="0px"
	 width="105px" height="105px" viewBox="0 0 100 100" enable-background="new 0 0 100 100" xml:space="preserve">
<circle fill="#4B2D82" stroke="#7D4D9F" stroke-width="5" stroke-miterlimit="10" cx="50" cy="50" r="46.501"/>
<g>
	<path fill="#FFFFFF" d="M44.349,53.523c0.183,5.895,1.338,8.447,5.714,8.447c4.375,0,5.531-2.553,5.531-6.988v-2.918
		c0-4.436-1.033-6.807-5.41-6.807H36.327V22.528h25.526v7.9H44.289v7.232h5.896c9.419,0,13.796,4.315,13.796,13.978v3.77
		c0,9.662-4.498,13.977-13.917,13.977c-9.421,0-13.918-4.131-14.04-15.861H44.349z"/>
</g>
<g>
</g>
<g>
</g>
<g>
</g>
<g>
</g>
<g>
</g>
<g>
</g>
</svg>
