<?xml version="1.0" encoding="UTF-8"?>
<svg width="98px" height="98px" viewBox="0 0 98 98" version="1.1" xmlns="http://www.w3.org/2000/svg" xmlns:xlink="http://www.w3.org/1999/xlink">
    <!-- Generator: Sketch 50.2 (55047) - http://www.bohemiancoding.com/sketch -->
    <title>6B Copy</title>
    <desc>Created with Sketch.</desc>
    <defs></defs>
    <g id="Page-1" stroke="none" stroke-width="1" fill="none" fill-rule="evenodd">
        <g id="MSCC-Iphone-6" transform="translate(-253.000000, -364.000000)">
            <g id="6B-Copy" transform="translate(255.000000, 366.000000)">
                <circle id="Oval" stroke="#7D4D9F" stroke-width="5" fill="#4B2D82" fill-rule="nonzero" cx="47" cy="47" r="46.501"></circle>
                <polygon id="7" fill="#FFFFFF" points="59.82 25.86 59.82 28.68 45.06 72 36.18 72 49.38 33.66 33.78 33.66 33.78 25.86"></polygon>
            </g>
        </g>
    </g>
</svg>