<?xml version="1.0" encoding="UTF-8"?>
<svg width="98px" height="98px" viewBox="0 0 98 98" version="1.1" xmlns="http://www.w3.org/2000/svg" xmlns:xlink="http://www.w3.org/1999/xlink">
    <!-- Generator: Sketch 50.2 (55047) - http://www.bohemiancoding.com/sketch -->
    <title>6W Copy</title>
    <desc>Created with Sketch.</desc>
    <defs></defs>
    <g id="Page-1" stroke="none" stroke-width="1" fill="none" fill-rule="evenodd">
        <g id="MSCC-Iphone-6" transform="translate(-253.000000, -33.000000)">
            <g id="6W-Copy" transform="translate(255.000000, 35.000000)">
                <circle id="Oval" stroke="#63308D" stroke-width="5" fill="#FFFFFF" fill-rule="nonzero" cx="47" cy="47" r="46.501"></circle>
                <polygon id="7" fill="#63308D" points="59.82 24.86 59.82 27.68 45.06 71 36.18 71 49.38 32.66 33.78 32.66 33.78 24.86"></polygon>
            </g>
        </g>
    </g>
</svg>