<?xml version="1.0" encoding="utf-8"?>
<!-- Generator: Adobe Illustrator 16.0.0, SVG Export Plug-In . SVG Version: 6.00 Build 0)  -->
<!DOCTYPE svg PUBLIC "-//W3C//DTD SVG 1.1//EN" "http://www.w3.org/Graphics/SVG/1.1/DTD/svg11.dtd">
<svg version="1.1" id="Layer_1" xmlns="http://www.w3.org/2000/svg" xmlns:xlink="http://www.w3.org/1999/xlink" x="0px" y="0px"
	 width="105px" height="105px" viewBox="0 0 100 100" enable-background="new 0 0 100 100" xml:space="preserve">
<circle fill="#4B2D82" stroke="#7D4D9F" stroke-width="5" stroke-miterlimit="10" cx="50" cy="50" r="46.501"/>
<g>
	<path fill="#FFFFFF" d="M67.165,69.424h-8.63l-2.37-8.266H44.192l-2.431,8.266h-8.63l12.945-46.736h8.326L67.165,69.424z
		 M54.038,52.953l-3.89-17.321l-3.89,17.321H54.038z"/>
</g>
<g>
</g>
<g>
</g>
<g>
</g>
<g>
</g>
<g>
</g>
<g>
</g>
</svg>
