<?xml version="1.0" encoding="UTF-8"?>
<svg width="174px" height="174px" viewBox="0 0 174 174" version="1.1" xmlns="http://www.w3.org/2000/svg" xmlns:xlink="http://www.w3.org/1999/xlink">
    <!-- Generator: Sketch 50.2 (55047) - http://www.bohemiancoding.com/sketch -->
    <title>6B Copy 5</title>
    <desc>Created with Sketch.</desc>
    <defs></defs>
    <g id="Page-1" stroke="none" stroke-width="1" fill="none" fill-rule="evenodd">
        <g id="MSCC-Ipad" transform="translate(-1185.000000, -506.000000)">
            <g id="6B-Copy-5" transform="translate(1185.000000, 506.000000)">
                <circle id="Oval" stroke="#7D4D9F" stroke-width="8" fill="#4B2D82" fill-rule="nonzero" cx="87" cy="87" r="82.0763191"></circle>
                <path d="M43.3889362,127.723404 L43.3889362,115.173191 L57.2719149,115.173191 L57.2719149,55.1987234 L46.3876596,55.1987234 L46.3876596,41.9821277 L72.7097872,41.9821277 L72.7097872,115.173191 L85.926383,115.173191 L85.926383,127.723404 L43.3889362,127.723404 Z M90.3689362,127.723404 L90.3689362,115.173191 L104.251915,115.173191 L104.251915,55.1987234 L93.3676596,55.1987234 L93.3676596,41.9821277 L119.689787,41.9821277 L119.689787,115.173191 L132.906383,115.173191 L132.906383,127.723404 L90.3689362,127.723404 Z" id="11" fill="#FFFFFF"></path>
            </g>
        </g>
    </g>
</svg>