<?xml version="1.0" encoding="UTF-8"?>
<svg width="174px" height="174px" viewBox="0 0 174 174" version="1.1" xmlns="http://www.w3.org/2000/svg" xmlns:xlink="http://www.w3.org/1999/xlink">
    <!-- Generator: Sketch 50.2 (55047) - http://www.bohemiancoding.com/sketch -->
    <title>6W Copy 3</title>
    <desc>Created with Sketch.</desc>
    <defs></defs>
    <g id="Page-1" stroke="none" stroke-width="1" fill="none" fill-rule="evenodd">
        <g id="MSCC-Ipad" transform="translate(-715.000000, -35.000000)">
            <g id="6W-Copy-3" transform="translate(715.000000, 35.000000)">
                <circle id="Oval" stroke="#63308D" stroke-width="8" fill="#FFFFFF" fill-rule="nonzero" cx="87" cy="87" r="82.0763191"></circle>
                <path d="M68.0821277,131.425532 L67.6378723,129.870638 C78.1889362,124.095319 86.0744681,114.321702 89.5174468,108.213191 C87.9625532,108.324255 85.5191489,108.324255 84.0753191,108.324255 C70.5255319,108.324255 61.6404255,101.105106 61.6404255,84.7787234 L61.6404255,70.3404255 C61.6404255,52.1259574 68.7485106,44.9068085 86.8519149,44.9068085 C105.066383,44.9068085 112.063404,52.1259574 112.063404,70.3404255 L112.063404,84.7787234 C112.063404,104.659149 100.734894,121.985106 86.5187234,131.425532 L68.0821277,131.425532 Z M86.8519149,59.4561702 C80.0770213,59.4561702 77.0782979,61.6774468 77.0782979,70.3404255 L77.0782979,84.7787234 C77.0782979,92.5531915 80.0770213,94.5523404 86.8519149,94.5523404 C93.6268085,94.5523404 96.6255319,92.5531915 96.6255319,84.7787234 L96.6255319,70.3404255 C96.6255319,61.6774468 93.6268085,59.4561702 86.8519149,59.4561702 Z" id="9" fill="#63308D"></path>
            </g>
        </g>
    </g>
</svg>
