<?xml version="1.0" encoding="utf-8"?>
<!-- Generator: Adobe Illustrator 16.0.0, SVG Export Plug-In . SVG Version: 6.00 Build 0)  -->
<!DOCTYPE svg PUBLIC "-//W3C//DTD SVG 1.1//EN" "http://www.w3.org/Graphics/SVG/1.1/DTD/svg11.dtd">
<svg version="1.1" id="Layer_1" xmlns="http://www.w3.org/2000/svg" xmlns:xlink="http://www.w3.org/1999/xlink" x="0px" y="0px"
	 width="341.736px" height="324.658px" viewBox="0 0 341.736 324.658" enable-background="new 0 0 341.736 324.658"
	 xml:space="preserve">
<g>
	<defs>
		<rect id="SVGID_1_" width="341.736" height="324.658"/>
	</defs>
	<clipPath id="SVGID_2_">
		<use xlink:href="#SVGID_1_"  overflow="visible"/>
	</clipPath>
	<path clip-path="url(#SVGID_2_)" fill="#B1D577" d="M271.975,59.397c2.656,0.27,5.226,0.794,7.695,1.529
		c0.396-6.149-0.578-12.095-2.665-17.534c-1.108-0.177-2.229-0.327-3.361-0.442c-30.204-3.065-57.354,17.517-63.06,46.738
		c4.424,3.875,9.688,6.845,15.532,8.583c0.033-0.52,0.065-1.04,0.118-1.563C228.559,73.811,249.077,57.073,271.975,59.397"/>
	<path clip-path="url(#SVGID_2_)" fill="#91C73F" d="M295.683,49.762c0.686,4.666,0.814,9.49,0.316,14.395
		c-0.185,1.814-0.453,3.597-0.796,5.352c9.824,8.607,15.499,21.671,14.083,35.628c-2.324,22.897-22.844,39.634-45.74,37.311
		c-16.194-1.644-29.297-12.393-34.766-26.644c-6.71-1.072-12.993-3.265-18.677-6.37c3.788,25.787,24.661,46.709,51.773,49.461
		c32.017,3.249,60.605-20.072,63.854-52.089C328.172,82.767,315.634,60.662,295.683,49.762"/>
	<path clip-path="url(#SVGID_2_)" fill="#4B2683" d="M210.584,89.688c-9.825-8.607-15.499-21.671-14.083-35.628
		c2.324-22.897,22.843-39.635,45.74-37.311c16.193,1.643,29.297,12.393,34.765,26.644c6.71,1.072,12.994,3.265,18.677,6.369
		c-3.788-25.786-24.661-46.708-51.772-49.46c-32.018-3.249-60.606,20.072-63.856,52.089c-2.438,24.038,10.099,46.144,30.05,57.044
		c-0.685-4.666-0.813-9.49-0.315-14.396C209.972,93.226,210.241,91.442,210.584,89.688"/>
	<path clip-path="url(#SVGID_2_)" fill="#76489D" d="M279.552,62.489c-2.324,22.897-22.842,39.635-45.74,37.311
		c-2.655-0.269-5.225-0.794-7.695-1.529c-0.395,6.149,0.579,12.095,2.665,17.534c1.109,0.177,2.229,0.327,3.361,0.442
		c30.204,3.065,57.354-17.517,63.061-46.738c-4.424-3.875-9.688-6.844-15.532-8.583C279.637,61.446,279.604,61.966,279.552,62.489"
		/>
	<path clip-path="url(#SVGID_2_)" fill="#F38B00" d="M226.116,98.271c-5.844-1.738-11.108-4.707-15.532-8.583
		c-0.343,1.754-0.612,3.538-0.796,5.351c-0.498,4.906-0.369,9.73,0.315,14.396c5.683,3.104,11.968,5.297,18.678,6.369
		C226.694,110.366,225.722,104.42,226.116,98.271"/>
	<path clip-path="url(#SVGID_2_)" fill="#F38B00" d="M279.671,60.926c5.844,1.738,11.107,4.707,15.531,8.583
		c0.344-1.754,0.612-3.538,0.797-5.351c0.497-4.906,0.368-9.73-0.316-14.396c-5.682-3.104-11.967-5.297-18.677-6.369
		C279.092,48.831,280.064,54.777,279.671,60.926"/>
	<polygon clip-path="url(#SVGID_2_)" fill="#4B2683" points="22.984,57.289 35.743,17.511 45.968,17.511 45.968,89.937 
		37.057,89.937 37.057,55.882 38.371,36.086 25.142,76.709 20.828,76.709 7.599,36.086 8.913,55.882 8.913,89.937 0,89.937 
		0,17.511 10.226,17.511 	"/>
	<path clip-path="url(#SVGID_2_)" fill="#4B2683" d="M90.153,35.43c-0.469-5.91-2.533-10.132-11.539-10.132
		c-10.039,0-12.009,4.597-12.009,11.821c0,10.038,8.725,9.945,17.825,10.883c8.349,0.844,16.98,4.972,16.98,20.076
		c0,15.573-5.91,22.235-20.827,22.235h-1.782c-14.823,0-21.578-7.224-22.235-19.515h9.664c0.469,6.099,3.19,10.789,12.477,10.789
		h1.783c9.756,0,11.727-4.597,11.727-13.04c0-11.821-7.787-12.008-16.793-12.759c-8.443-0.656-18.106-4.784-18.106-18.575
		c0-13.416,6.097-20.358,21.296-20.358c14.353,0,20.17,6.661,20.827,18.575H90.153z"/>
	<path clip-path="url(#SVGID_2_)" fill="#4B2683" d="M34.993,128.869c0-10.227-2.814-15.293-14.635-15.293
		c-14.729,0-15.761,8.256-15.761,19.984v25.799c0,12.478,1.032,19.795,15.761,19.795c12.195,0,14.26-4.879,14.729-15.292h4.315
		c-0.469,13.041-4.128,19.606-19.044,19.606C3.753,183.469,0,175.87,0,159.547v-25.612c0-16.136,3.47-24.486,20.358-24.486
		c14.823,0,19.044,6.286,19.044,19.42H34.993z"/>
	<path clip-path="url(#SVGID_2_)" fill="#4B2683" d="M49.25,182.813h-4.879l18.576-72.425h5.159l18.576,72.425h-4.972l-4.691-17.825
		H53.846L49.25,182.813z M65.574,117.235l-10.601,43.343h21.014l-10.32-43.343H65.574z"/>
	<path clip-path="url(#SVGID_2_)" fill="#4B2683" d="M114.917,155.981l15.291,26.831h-5.817l-14.823-26.738H99.063v26.738H94.09
		v-72.425h17.449c11.821,0,17.356,4.502,17.356,21.201v5.536C128.896,150.446,124.392,155.137,114.917,155.981 M111.54,151.666
		c10.132,0,12.665-3.096,12.665-14.635v-5.442c0-11.82-1.876-16.417-12.665-16.417H99.063v36.494H111.54z"/>
	<polygon clip-path="url(#SVGID_2_)" fill="#4B2683" points="171.484,110.387 171.484,114.702 143.435,114.702 143.435,141.909 
		168.67,141.909 168.67,146.318 143.435,146.318 143.435,178.215 173.361,178.215 173.361,182.813 138.744,182.813 138.744,110.387 
			"/>
	<path clip-path="url(#SVGID_2_)" fill="#4B2683" d="M34.993,222.802c0-10.226-2.814-15.292-14.635-15.292
		c-14.728,0-15.761,8.256-15.761,19.983v25.799c0,12.478,1.033,19.795,15.761,19.795c12.196,0,14.26-4.878,14.729-15.291h4.316
		c-0.469,13.04-4.128,19.606-19.045,19.606C3.753,277.402,0,269.804,0,253.479v-25.611c0-16.137,3.471-24.486,20.358-24.486
		c14.824,0,19.045,6.286,19.045,19.42H34.993z"/>
	<path clip-path="url(#SVGID_2_)" fill="#4B2683" d="M47.468,253.573v-26.174c0-16.606,3.564-23.829,21.014-23.829
		s21.015,7.223,21.015,23.922v25.988c0,16.324-3.847,23.923-21.015,23.923S47.468,269.805,47.468,253.573 M52.159,227.681v25.611
		c0,11.633,0.469,19.795,16.323,19.795c15.855,0,16.324-7.88,16.324-19.795v-25.611c0-12.29-0.469-19.795-16.324-19.795
		C52.628,207.886,52.159,215.109,52.159,227.681"/>
	<polygon clip-path="url(#SVGID_2_)" fill="#4B2683" points="136.775,276.652 131.334,276.652 106.285,215.203 106.098,215.203 
		106.754,237.907 106.754,276.652 101.782,276.652 101.782,204.319 106.754,204.319 132.46,266.426 132.647,266.426 
		131.803,240.627 131.803,204.319 136.775,204.319 	"/>
	<polygon clip-path="url(#SVGID_2_)" fill="#4B2683" points="184.711,276.652 179.27,276.652 154.221,215.203 154.032,215.203 
		154.69,237.907 154.69,276.652 149.717,276.652 149.717,204.319 154.69,204.319 180.396,266.426 180.583,266.426 179.738,240.627 
		179.738,204.319 184.711,204.319 	"/>
	<polygon clip-path="url(#SVGID_2_)" fill="#4B2683" points="230.488,204.32 230.488,208.636 202.438,208.636 202.438,235.843 
		227.675,235.843 227.675,240.252 202.438,240.252 202.438,272.149 232.365,272.149 232.365,276.746 197.748,276.746 
		197.748,204.32 	"/>
	<path clip-path="url(#SVGID_2_)" fill="#4B2683" d="M275.611,222.802c0-10.226-2.813-15.292-14.636-15.292
		c-14.729,0-15.761,8.256-15.761,19.983v25.799c0,12.478,1.032,19.795,15.761,19.795c12.196,0,14.26-4.878,14.729-15.291h4.314
		c-0.469,13.04-4.128,19.606-19.044,19.606c-16.604,0-20.357-7.599-20.357-23.923v-25.611c0-16.137,3.471-24.486,20.357-24.486
		c14.823,0,19.044,6.286,19.044,19.42H275.611z"/>
	<polygon clip-path="url(#SVGID_2_)" fill="#4B2683" points="319.795,208.729 304.69,208.729 304.69,276.746 300,276.746 
		300,208.729 284.896,208.729 284.896,204.32 319.795,204.32 	"/>
	<polygon clip-path="url(#SVGID_2_)" fill="#F38B00" points="0.136,324.497 0.136,306.769 2.302,306.769 2.302,322.474 
		9.095,322.474 9.095,324.497 	"/>
	<polygon clip-path="url(#SVGID_2_)" fill="#F38B00" points="22.255,306.745 22.255,308.677 15.62,308.677 15.62,314.012 
		21.623,314.012 21.623,316.058 15.62,316.058 15.62,322.45 22.819,322.45 22.819,324.497 13.477,324.497 13.477,306.745 	"/>
	<path clip-path="url(#SVGID_2_)" fill="#F38B00" d="M35.325,324.497l-0.881-3.288h-5.213l-0.88,3.288h-2.234l4.626-17.684h2.189
		l4.604,17.684H35.325z M31.827,309.665l-1.174,5.771l-0.88,3.703h4.108l-0.904-3.771L31.827,309.665z"/>
	<path clip-path="url(#SVGID_2_)" fill="#F38B00" d="M47.944,317.806l3.768,6.691h-2.527l-3.498-6.554h-1.964v6.577H41.58v-17.775
		l4.671-0.023c3.047,0,4.943,1.288,4.943,4.853v1.241C51.193,315.644,50.358,317.322,47.944,317.806 M43.724,308.814v7.036h2.527
		c1.919,0,2.799-0.598,2.799-3.035v-1.241c0-2.438-0.88-2.645-2.799-2.76H43.724z"/>
	<polygon clip-path="url(#SVGID_2_)" fill="#F38B00" points="63.925,320.335 63.609,314.311 63.609,306.768 65.753,306.768 
		65.753,324.497 63.744,324.497 58.012,311.758 58.147,317.575 58.147,324.497 56.004,324.497 56.004,306.768 58.034,306.768 	"/>
	<path clip-path="url(#SVGID_2_)" fill="#F38B00" d="M73.294,323.37c0,1.633-2.596,1.748-2.596,0
		C70.698,321.691,73.294,321.623,73.294,323.37"/>
	<path clip-path="url(#SVGID_2_)" fill="#F38B00" d="M94.512,311.758c-0.023-2.139-0.452-3.104-3.341-3.104
		c-3.023,0-3.385,1.104-3.385,3.909v6.071c0,2.805,0.452,3.909,3.385,3.909c2.935,0,3.386-0.667,3.386-3.474h2.054
		c0,3.427-0.362,5.542-5.44,5.542c-5.077,0-5.552-2.115-5.552-6.001v-6.024c0-3.887,0.904-5.979,5.552-5.979
		c4.514,0,5.395,1.725,5.44,5.15H94.512z"/>
	<path clip-path="url(#SVGID_2_)" fill="#F38B00" d="M112.095,318.68c0,3.886-0.857,5.979-5.642,5.979
		c-4.784,0-5.642-2.094-5.642-5.979v-6.186c0-3.887,0.858-5.979,5.642-5.979c4.785,0,5.642,2.093,5.642,5.979V318.68z
		 M109.929,312.471c0-2.806-0.226-3.955-3.476-3.955s-3.475,1.149-3.475,3.955v6.231c0,2.806,0.225,3.909,3.475,3.909
		s3.476-1.104,3.476-3.909V312.471z"/>
	<polygon clip-path="url(#SVGID_2_)" fill="#F38B00" points="125.233,320.335 124.917,314.311 124.917,306.768 127.062,306.768 
		127.062,324.497 125.052,324.497 119.32,311.758 119.456,317.575 119.456,324.497 117.313,324.497 117.313,306.768 
		119.342,306.768 	"/>
	<polygon clip-path="url(#SVGID_2_)" fill="#F38B00" points="140.356,320.335 140.04,314.311 140.04,306.768 142.184,306.768 
		142.184,324.497 140.175,324.497 134.443,311.758 134.579,317.575 134.579,324.497 132.435,324.497 132.435,306.768 
		134.465,306.768 	"/>
	<polygon clip-path="url(#SVGID_2_)" fill="#F38B00" points="156.36,306.745 156.36,308.677 149.725,308.677 149.725,314.012 
		155.728,314.012 155.728,316.058 149.725,316.058 149.725,322.45 156.924,322.45 156.924,324.497 147.582,324.497 147.582,306.745 
			"/>
	<path clip-path="url(#SVGID_2_)" fill="#F38B00" d="M170.063,311.758c-0.023-2.139-0.452-3.104-3.341-3.104
		c-3.023,0-3.385,1.104-3.385,3.909v6.071c0,2.805,0.452,3.909,3.385,3.909c2.935,0,3.386-0.667,3.386-3.474h2.054
		c0,3.427-0.361,5.542-5.44,5.542c-5.077,0-5.552-2.115-5.552-6.001v-6.024c0-3.887,0.904-5.979,5.552-5.979
		c4.514,0,5.395,1.725,5.44,5.15H170.063z"/>
	<polygon clip-path="url(#SVGID_2_)" fill="#F38B00" points="181.351,308.884 181.351,324.497 179.205,324.497 179.205,308.884 
		175.596,308.884 175.596,306.86 184.961,306.86 184.961,308.884 	"/>
	<path clip-path="url(#SVGID_2_)" fill="#F38B00" d="M190.178,323.37c0,1.633-2.596,1.748-2.596,0
		C187.582,321.691,190.178,321.623,190.178,323.37"/>
	<polygon clip-path="url(#SVGID_2_)" fill="#F38B00" points="211.53,306.745 211.53,308.677 204.896,308.677 204.896,314.012 
		210.898,314.012 210.898,316.058 204.896,316.058 204.896,322.45 212.094,322.45 212.094,324.497 202.752,324.497 202.752,306.745 
			"/>
	<polygon clip-path="url(#SVGID_2_)" fill="#F38B00" points="222.299,316.495 225.368,306.745 227.828,306.745 227.828,324.497 
		225.685,324.497 225.685,316.149 226,311.298 222.818,321.255 221.779,321.255 218.599,311.298 218.914,316.149 218.914,324.497 
		216.771,324.497 216.771,306.745 219.23,306.745 	"/>
	<path clip-path="url(#SVGID_2_)" fill="#F38B00" d="M237.896,306.745c3.047,0,4.942,1.265,4.942,4.829v1.932
		c0,3.656-1.376,5.128-4.942,5.128h-2.527v5.887h-2.145v-17.753L237.896,306.745z M235.369,308.814v7.727h2.527
		c1.919,0,2.799-0.598,2.799-3.035v-1.932c0-2.438-0.88-2.645-2.799-2.76H235.369z"/>
	<path clip-path="url(#SVGID_2_)" fill="#F38B00" d="M258.663,318.68c0,3.886-0.857,5.979-5.643,5.979
		c-4.783,0-5.642-2.094-5.642-5.979v-6.186c0-3.887,0.858-5.979,5.642-5.979c4.785,0,5.643,2.093,5.643,5.979V318.68z
		 M256.497,312.471c0-2.806-0.227-3.955-3.477-3.955s-3.475,1.149-3.475,3.955v6.231c0,2.806,0.225,3.909,3.475,3.909
		s3.477-1.104,3.477-3.909V312.471z"/>
	<polygon clip-path="url(#SVGID_2_)" fill="#F38B00" points="270.198,307.711 271.868,307.711 274.847,320.864 276.111,314.241 
		277.781,306.745 279.993,306.745 275.841,324.521 273.877,324.521 272.41,318.564 271.033,312.194 269.657,318.564 268.19,324.521 
		266.227,324.521 262.074,306.745 264.286,306.745 265.956,314.241 267.219,320.864 	"/>
	<polygon clip-path="url(#SVGID_2_)" fill="#F38B00" points="292.907,306.745 292.907,308.677 286.272,308.677 286.272,314.012 
		292.275,314.012 292.275,316.058 286.272,316.058 286.272,322.45 293.471,322.45 293.471,324.497 284.129,324.497 284.129,306.745 
			"/>
	<path clip-path="url(#SVGID_2_)" fill="#F38B00" d="M304.511,317.806l3.769,6.691h-2.527l-3.498-6.554h-1.964v6.577h-2.145v-17.775
		l4.671-0.023c3.048,0,4.943,1.288,4.943,4.853v1.241C307.76,315.644,306.925,317.322,304.511,317.806 M300.29,308.814v7.036h2.526
		c1.92,0,2.8-0.598,2.8-3.035v-1.241c0-2.438-0.88-2.645-2.8-2.76H300.29z"/>
	<path clip-path="url(#SVGID_2_)" fill="#F38B00" d="M314.737,323.37c0,1.633-2.596,1.748-2.596,0
		C312.142,321.691,314.737,321.623,314.737,323.37"/>
	<polygon clip-path="url(#SVGID_2_)" fill="#4B2683" points="326.879,205.694 323.736,205.694 323.736,204.639 331.275,204.639 
		331.275,205.694 328.133,205.694 328.133,214.066 326.879,214.066 	"/>
	<polygon clip-path="url(#SVGID_2_)" fill="#4B2683" points="332.35,204.638 334.065,204.638 337.036,212.561 340.021,204.638 
		341.736,204.638 341.736,214.066 340.548,214.066 340.548,206.223 340.522,206.223 337.577,214.066 336.508,214.066 
		333.563,206.223 333.537,206.223 333.537,214.066 332.35,214.066 	"/>
</g>
</svg>
