<?xml version="1.0" encoding="UTF-8"?>
<svg width="130px" height="130px" viewBox="0 0 130 130" version="1.1" xmlns="http://www.w3.org/2000/svg" xmlns:xlink="http://www.w3.org/1999/xlink">
    <!-- Generator: Sketch 50.2 (55047) - http://www.bohemiancoding.com/sketch -->
    <title>6W Copy 4</title>
    <desc>Created with Sketch.</desc>
    <defs></defs>
    <g id="Page-1" stroke="none" stroke-width="1" fill="none" fill-rule="evenodd">
        <g id="MSCC-Iphone-6-pluss" transform="translate(-823.000000, -33.000000)">
            <g id="6W-Copy-4" transform="translate(825.000000, 35.000000)">
                <circle id="Oval" stroke="#63308D" stroke-width="5" fill="#FFFFFF" fill-rule="nonzero" cx="63" cy="63" r="62.3311277"></circle>
                <path d="M26.0578723,95.1702128 L26.0578723,86.0821277 L36.1110638,86.0821277 L36.1110638,42.6523404 L28.2293617,42.6523404 L28.2293617,33.0817021 L47.2902128,33.0817021 L47.2902128,86.0821277 L56.8608511,86.0821277 L56.8608511,95.1702128 L26.0578723,95.1702128 Z M80.747234,95.3310638 C68.2812766,95.3310638 62.3297872,89.6208511 62.3297872,76.8331915 L62.3297872,51.8208511 C62.3297872,39.3548936 68.2812766,33.3229787 80.747234,33.3229787 C93.2131915,33.3229787 99.1646809,39.0331915 99.1646809,51.8208511 L99.1646809,76.8331915 C99.1646809,89.6208511 93.2131915,95.3310638 80.747234,95.3310638 Z M80.747234,85.5191489 C86.5378723,85.5191489 88.0659574,82.1412766 88.0659574,76.2702128 L88.0659574,52.3838298 C88.0659574,46.512766 86.5378723,43.1348936 80.747234,43.1348936 C74.9565957,43.1348936 73.4285106,46.512766 73.4285106,52.3838298 L73.4285106,76.2702128 C73.4285106,82.1412766 74.9565957,85.5191489 80.747234,85.5191489 Z" id="10" fill="#63308D"></path>
            </g>
        </g>
    </g>
</svg>