<?xml version="1.0" encoding="UTF-8"?>
<svg width="130px" height="130px" viewBox="0 0 130 130" version="1.1" xmlns="http://www.w3.org/2000/svg" xmlns:xlink="http://www.w3.org/1999/xlink">
    <!-- Generator: Sketch 50.2 (55047) - http://www.bohemiancoding.com/sketch -->
    <title>6W Copy 5</title>
    <desc>Created with Sketch.</desc>
    <defs></defs>
    <g id="Page-1" stroke="none" stroke-width="1" fill="none" fill-rule="evenodd">
        <g id="MSCC-Iphone-6-pluss" transform="translate(-1033.000000, -33.000000)">
            <g id="6W-Copy-5" transform="translate(1035.000000, 35.000000)">
                <circle id="Oval" stroke="#63308D" stroke-width="5" fill="#FFFFFF" fill-rule="nonzero" cx="63" cy="63" r="62.3311277"></circle>
                <path d="M31.4195745,93.8297872 L31.4195745,84.7417021 L41.472766,84.7417021 L41.472766,41.3119149 L33.5910638,41.3119149 L33.5910638,31.7412766 L52.6519149,31.7412766 L52.6519149,84.7417021 L62.2225532,84.7417021 L62.2225532,93.8297872 L31.4195745,93.8297872 Z M65.4395745,93.8297872 L65.4395745,84.7417021 L75.492766,84.7417021 L75.492766,41.3119149 L67.6110638,41.3119149 L67.6110638,31.7412766 L86.6719149,31.7412766 L86.6719149,84.7417021 L96.2425532,84.7417021 L96.2425532,93.8297872 L65.4395745,93.8297872 Z" id="11" fill="#63308D"></path>
            </g>
        </g>
    </g>
</svg>