<?xml version="1.0" encoding="utf-8"?>
<!-- Generator: Adobe Illustrator 16.0.0, SVG Export Plug-In . SVG Version: 6.00 Build 0)  -->
<!DOCTYPE svg PUBLIC "-//W3C//DTD SVG 1.1//EN" "http://www.w3.org/Graphics/SVG/1.1/DTD/svg11.dtd">
<svg version="1.1" id="Layer_1" xmlns="http://www.w3.org/2000/svg" xmlns:xlink="http://www.w3.org/1999/xlink" x="0px" y="0px"
	 width="126px" height="126px" viewBox="0 0 100 100" enable-background="new 0 0 100 100" xml:space="preserve">
<circle fill="#EF8922" stroke="#EE3224" stroke-width="5" stroke-miterlimit="10" cx="50" cy="50" r="46.501"/>
<g>
	<path fill="#FFFFFF" d="M44.228,54.557c0,4.193,1.58,6.988,5.287,6.988c3.708,0,5.713-1.641,5.713-6.441
		c0-5.167-2.736-6.807-6.139-6.807h-4.437v-7.476h4.437c4.375,0,5.956-2.795,5.956-6.138c0-3.1-1.701-5.227-5.043-5.227
		c-2.979,0-5.227,1.641-5.227,5.895h-7.84c0-9.238,4.133-13.431,13.127-13.431c7.11,0,12.946,4.133,12.946,12.945
		c0,2.978-1.217,7.658-5.166,9.481c4.68,1.701,5.834,5.47,5.834,10.697c0,8.873-4.74,14.525-14.1,14.525
		c-9.603,0-13.431-5.773-13.431-15.012H44.228z"/>
</g>
<g>
</g>
<g>
</g>
<g>
</g>
<g>
</g>
<g>
</g>
<g>
</g>
</svg>
