<?xml version="1.0" encoding="UTF-8"?>
<svg width="130px" height="130px" viewBox="0 0 130 130" version="1.1" xmlns="http://www.w3.org/2000/svg" xmlns:xlink="http://www.w3.org/1999/xlink">
    <!-- Generator: Sketch 50.2 (55047) - http://www.bohemiancoding.com/sketch -->
    <title>6B Copy</title>
    <desc>Created with Sketch.</desc>
    <defs></defs>
    <g id="Page-1" stroke="none" stroke-width="1" fill="none" fill-rule="evenodd">
        <g id="MSCC-Iphone-6-pluss" transform="translate(-253.000000, -494.000000)">
            <g id="6B-Copy" transform="translate(255.000000, 496.000000)">
                <circle id="Oval" stroke="#7D4D9F" stroke-width="5" fill="#4B2D82" fill-rule="nonzero" cx="63" cy="63" r="62.3311277"></circle>
                <polygon id="7" fill="#FFFFFF" points="80.1842553 34.6634043 80.1842553 38.4434043 60.3995745 96.5106383 48.4965957 96.5106383 66.1902128 45.1187234 45.2795745 45.1187234 45.2795745 34.6634043"></polygon>
            </g>
        </g>
    </g>
</svg>