<?xml version="1.0" encoding="UTF-8"?>
<svg width="130px" height="130px" viewBox="0 0 130 130" version="1.1" xmlns="http://www.w3.org/2000/svg" xmlns:xlink="http://www.w3.org/1999/xlink">
    <!-- Generator: Sketch 50.2 (55047) - http://www.bohemiancoding.com/sketch -->
    <title>6W Copy 3</title>
    <desc>Created with Sketch.</desc>
    <defs></defs>
    <g id="Page-1" stroke="none" stroke-width="1" fill="none" fill-rule="evenodd">
        <g id="MSCC-Iphone-6-pluss" transform="translate(-633.000000, -33.000000)">
            <g id="6W-Copy-3" transform="translate(635.000000, 35.000000)">
                <circle id="Oval" stroke="#63308D" stroke-width="5" fill="#FFFFFF" fill-rule="nonzero" cx="63" cy="63" r="62.3311277"></circle>
                <path d="M49.3008511,95.1702128 L48.9791489,94.0442553 C56.6195745,89.8621277 62.3297872,82.7846809 64.8229787,78.3612766 C63.6970213,78.4417021 61.9276596,78.4417021 60.8821277,78.4417021 C51.0702128,78.4417021 44.6361702,73.2140426 44.6361702,61.3914894 L44.6361702,50.9361702 C44.6361702,37.746383 49.7834043,32.5187234 62.892766,32.5187234 C76.0825532,32.5187234 81.1493617,37.746383 81.1493617,50.9361702 L81.1493617,61.3914894 C81.1493617,75.7876596 72.9459574,88.3340426 62.6514894,95.1702128 L49.3008511,95.1702128 Z M62.892766,43.0544681 C57.9868085,43.0544681 55.8153191,44.6629787 55.8153191,50.9361702 L55.8153191,61.3914894 C55.8153191,67.0212766 57.9868085,68.4689362 62.892766,68.4689362 C67.7987234,68.4689362 69.9702128,67.0212766 69.9702128,61.3914894 L69.9702128,50.9361702 C69.9702128,44.6629787 67.7987234,43.0544681 62.892766,43.0544681 Z" id="9" fill="#63308D"></path>
            </g>
        </g>
    </g>
</svg>
