<?xml version="1.0" encoding="UTF-8"?>
<svg width="90px" height="90px" viewBox="0 0 90 90" version="1.1" xmlns="http://www.w3.org/2000/svg" xmlns:xlink="http://www.w3.org/1999/xlink">
    <!-- Generator: Sketch 50.2 (55047) - http://www.bohemiancoding.com/sketch -->
    <title>6W Copy 5</title>
    <desc>Created with Sketch.</desc>
    <defs></defs>
    <g id="Page-1" stroke="none" stroke-width="1" fill="none" fill-rule="evenodd">
        <g id="MSCC-Iphone-5" transform="translate(-1032.000000, -32.000000)">
            <g id="6W-Copy-5" transform="translate(1035.000000, 35.000000)">
                <circle id="Oval" stroke="#63308D" stroke-width="5" fill="#FFFFFF" fill-rule="nonzero" cx="42" cy="42" r="41.5540851"></circle>
                <path d="M20.946383,62.5531915 L20.946383,56.4944681 L27.6485106,56.4944681 L27.6485106,27.5412766 L22.3940426,27.5412766 L22.3940426,21.1608511 L35.1012766,21.1608511 L35.1012766,56.4944681 L41.4817021,56.4944681 L41.4817021,62.5531915 L20.946383,62.5531915 Z M43.626383,62.5531915 L43.626383,56.4944681 L50.3285106,56.4944681 L50.3285106,27.5412766 L45.0740426,27.5412766 L45.0740426,21.1608511 L57.7812766,21.1608511 L57.7812766,56.4944681 L64.1617021,56.4944681 L64.1617021,62.5531915 L43.626383,62.5531915 Z" id="11" fill="#63308D"></path>
            </g>
        </g>
    </g>
</svg>