<?xml version="1.0" encoding="UTF-8"?>
<svg width="90px" height="90px" viewBox="0 0 90 90" version="1.1" xmlns="http://www.w3.org/2000/svg" xmlns:xlink="http://www.w3.org/1999/xlink">
    <!-- Generator: Sketch 50.2 (55047) - http://www.bohemiancoding.com/sketch -->
    <title>6W Copy 6</title>
    <desc>Created with Sketch.</desc>
    <defs></defs>
    <g id="Page-1" stroke="none" stroke-width="1" fill="none" fill-rule="evenodd">
        <g id="MSCC-Iphone-5" transform="translate(-1222.000000, -32.000000)">
            <g id="6W-Copy-6" transform="translate(1225.000000, 35.000000)">
                <circle id="Oval" stroke="#63308D" stroke-width="5" fill="#FFFFFF" fill-rule="nonzero" cx="42" cy="42" r="41.5540851"></circle>
                <path d="M17.3719149,62.5531915 L17.3719149,56.4944681 L24.0740426,56.4944681 L24.0740426,27.5412766 L18.8195745,27.5412766 L18.8195745,21.1608511 L31.5268085,21.1608511 L31.5268085,56.4944681 L37.907234,56.4944681 L37.907234,62.5531915 L17.3719149,62.5531915 Z M41.3923404,62.5531915 L41.3923404,54.0817021 C41.3923404,36.5489362 57.7991489,42.4468085 57.7991489,31.9914894 C57.7991489,29.0961702 56.4587234,27.5412766 53.5097872,27.5412766 C50.4,27.5412766 49.0059574,28.506383 49.0059574,33.3319149 L41.6068085,33.3319149 C41.6068085,25.0748936 45.0382979,21 53.5634043,21 C61.7131915,21 65.1982979,25.7182979 65.1982979,31.8842553 C65.1982979,49.5242553 48.7914894,41.3208511 48.7914894,53.9208511 L48.7914894,55.2612766 L64.6085106,55.2612766 L64.6085106,62.5531915 L41.3923404,62.5531915 Z" id="12" fill="#63308D"></path>
            </g>
        </g>
    </g>
</svg>