<?xml version="1.0" encoding="utf-8"?>
<!-- Generator: Adobe Illustrator 16.0.0, SVG Export Plug-In . SVG Version: 6.00 Build 0)  -->
<!DOCTYPE svg PUBLIC "-//W3C//DTD SVG 1.1//EN" "http://www.w3.org/Graphics/SVG/1.1/DTD/svg11.dtd">
<svg version="1.1" id="Layer_1" xmlns="http://www.w3.org/2000/svg" xmlns:xlink="http://www.w3.org/1999/xlink" x="0px" y="0px"
	 width="84px" height="84px" viewBox="0 0 100 100" enable-background="new 0 0 100 100" xml:space="preserve">
<circle fill="#EF8922" stroke="#EE3224" stroke-width="5" stroke-miterlimit="10" cx="50" cy="50" r="46.501"/>
<g>
	<path fill="#FFFFFF" d="M33.684,59.844l-0.973-5.834l18.477-31.665h8.082v29.901h4.498v7.598H59.27v9.42h-8.082v-9.42H33.684z
		 M51.188,45.319l0.91-10.332l-9.298,17.259h8.388V45.319z"/>
</g>
<g>
</g>
<g>
</g>
<g>
</g>
<g>
</g>
<g>
</g>
<g>
</g>
</svg>
