<?xml version="1.0" encoding="utf-8"?>
<!-- Generator: Adobe Illustrator 16.0.0, SVG Export Plug-In . SVG Version: 6.00 Build 0)  -->
<!DOCTYPE svg PUBLIC "-//W3C//DTD SVG 1.1//EN" "http://www.w3.org/Graphics/SVG/1.1/DTD/svg11.dtd">
<svg version="1.1" id="Layer_1" xmlns="http://www.w3.org/2000/svg" xmlns:xlink="http://www.w3.org/1999/xlink" x="0px" y="0px"
	 width="84px" height="84px" viewBox="0 0 100 100" enable-background="new 0 0 100 100" xml:space="preserve">
<circle fill="#FFFFFF" stroke="#63308D" stroke-width="5" stroke-miterlimit="10" cx="50" cy="50" r="46.501"/>
<g>
	<path fill="#63308D" d="M44.349,53.523c0.183,5.896,1.338,8.448,5.714,8.448c4.375,0,5.531-2.553,5.531-6.989v-2.917
		c0-4.437-1.033-6.808-5.41-6.808H36.327V22.528h25.526v7.9H44.289v7.232h5.896c9.419,0,13.796,4.315,13.796,13.979v3.769
		c0,9.663-4.498,13.978-13.917,13.978c-9.421,0-13.918-4.132-14.04-15.862H44.349z"/>
</g>
<g>
</g>
<g>
</g>
<g>
</g>
<g>
</g>
<g>
</g>
<g>
</g>
</svg>
