<?xml version="1.0" encoding="utf-8"?>
<!-- Generator: Adobe Illustrator 16.0.0, SVG Export Plug-In . SVG Version: 6.00 Build 0)  -->
<!DOCTYPE svg PUBLIC "-//W3C//DTD SVG 1.1//EN" "http://www.w3.org/Graphics/SVG/1.1/DTD/svg11.dtd">
<svg version="1.1" id="Layer_1" xmlns="http://www.w3.org/2000/svg" xmlns:xlink="http://www.w3.org/1999/xlink" x="0px" y="0px"
	 width="84px" height="84px" viewBox="0 0 100 100" enable-background="new 0 0 100 100" xml:space="preserve">
<circle fill="#4B2D82" stroke="#7D4D9F" stroke-width="5" stroke-miterlimit="10" cx="50" cy="50" r="46.501"/>
<g>
	<path fill="#FFFFFF" d="M60.576,23.318c-5.774,3.16-10.089,8.508-11.974,11.851c0.852-0.061,2.188-0.061,2.979-0.061
		c7.415,0,12.276,3.95,12.276,12.884v7.9c0,9.969-3.89,13.918-13.796,13.918c-9.967,0-13.796-3.949-13.796-13.918v-7.9
		c0-10.879,6.199-20.36,13.979-25.526h10.089L60.576,23.318z M55.41,55.893v-7.9c0-4.254-1.642-5.349-5.349-5.349
		s-5.349,1.095-5.349,5.349v7.9c0,4.742,1.642,5.957,5.349,5.957S55.41,60.635,55.41,55.893z"/>
</g>
<g>
</g>
<g>
</g>
<g>
</g>
<g>
</g>
<g>
</g>
<g>
</g>
</svg>
