<?xml version="1.0" encoding="UTF-8"?>
<svg width="90px" height="90px" viewBox="0 0 90 90" version="1.1" xmlns="http://www.w3.org/2000/svg" xmlns:xlink="http://www.w3.org/1999/xlink">
    <!-- Generator: Sketch 50.2 (55047) - http://www.bohemiancoding.com/sketch -->
    <title>6O Copy 2</title>
    <desc>Created with Sketch.</desc>
    <defs></defs>
    <g id="Page-1" stroke="none" stroke-width="1" fill="none" fill-rule="evenodd">
        <g id="MSCC-Iphone-5" transform="translate(-442.000000, -190.000000)">
            <g id="6O-Copy-2" transform="translate(445.000000, 193.000000)">
                <circle id="Oval" stroke="#EE3224" stroke-width="5" fill="#EF8922" fill-rule="nonzero" cx="42" cy="42" r="41.5540851"></circle>
                <path d="M42.1251064,62.1957447 C33.8144681,62.1957447 29.8468085,58.3889362 29.8468085,49.8638298 L29.8468085,46.9685106 C29.8468085,42.947234 31.026383,40.427234 34.1361702,38.5506383 C31.4017021,36.7276596 30.4365957,33.2425532 30.4365957,30.7761702 C30.4365957,24.9319149 33.8680851,20.16 42.1787234,20.16 C50.4893617,20.16 53.9208511,24.9319149 53.9208511,30.7761702 C53.9208511,33.4034043 52.5804255,37.0493617 50.3821277,38.5506383 C53.0093617,40.6417021 54.4034043,42.947234 54.4034043,46.9685106 L54.4034043,49.8638298 C54.4034043,58.3889362 50.4357447,62.1957447 42.1251064,62.1957447 Z M42.1251064,55.6544681 C45.9855319,55.6544681 47.0042553,53.4025532 47.0042553,49.4885106 L47.0042553,47.3438298 C47.0042553,43.5370213 45.9855319,41.4459574 42.1251064,41.4459574 C38.2646809,41.4459574 37.2459574,43.4297872 37.2459574,47.3438298 L37.2459574,49.4885106 C37.2459574,53.4025532 38.2646809,55.6544681 42.1251064,55.6544681 Z M42.1787234,35.6017021 L42.5540426,35.6017021 C45.0740426,35.4944681 46.5217021,33.2425532 46.5217021,30.9370213 C46.5217021,28.4170213 44.9668085,26.7012766 42.1787234,26.7012766 C39.3906383,26.7012766 37.8357447,28.4170213 37.8357447,30.9370213 C37.8357447,33.3497872 39.3906383,35.6017021 42.1787234,35.6017021 Z" id="8" fill="#FFFFFF"></path>
            </g>
        </g>
    </g>
</svg>