<?xml version="1.0" encoding="UTF-8"?>
<svg width="90px" height="90px" viewBox="0 0 90 90" version="1.1" xmlns="http://www.w3.org/2000/svg" xmlns:xlink="http://www.w3.org/1999/xlink">
    <!-- Generator: Sketch 50.2 (55047) - http://www.bohemiancoding.com/sketch -->
    <title>6B Copy 3</title>
    <desc>Created with Sketch.</desc>
    <defs></defs>
    <g id="Page-1" stroke="none" stroke-width="1" fill="none" fill-rule="evenodd">
        <g id="MSCC-Iphone-5" transform="translate(-632.000000, -363.000000)">
            <g id="6B-Copy-3" transform="translate(635.000000, 366.000000)">
                <circle id="Oval" stroke="#7D4D9F" stroke-width="5" fill="#4B2D82" fill-rule="nonzero" cx="42" cy="42" r="41.5540851"></circle>
                <path d="M32.867234,62.5531915 L32.652766,61.8025532 C37.746383,59.0144681 41.5531915,54.2961702 43.2153191,51.347234 C42.4646809,51.4008511 41.2851064,51.4008511 40.5880851,51.4008511 C34.0468085,51.4008511 29.7574468,47.9157447 29.7574468,40.0340426 L29.7574468,33.0638298 C29.7574468,24.2706383 33.1889362,20.7855319 41.9285106,20.7855319 C50.7217021,20.7855319 54.0995745,24.2706383 54.0995745,33.0638298 L54.0995745,40.0340426 C54.0995745,49.6314894 48.6306383,57.9957447 41.7676596,62.5531915 L32.867234,62.5531915 Z M41.9285106,27.8093617 C38.6578723,27.8093617 37.2102128,28.8817021 37.2102128,33.0638298 L37.2102128,40.0340426 C37.2102128,43.787234 38.6578723,44.7523404 41.9285106,44.7523404 C45.1991489,44.7523404 46.6468085,43.787234 46.6468085,40.0340426 L46.6468085,33.0638298 C46.6468085,28.8817021 45.1991489,27.8093617 41.9285106,27.8093617 Z" id="9" fill="#FFFFFF"></path>
            </g>
        </g>
    </g>
</svg>