<?xml version="1.0" encoding="utf-8"?>
<!-- Generator: Adobe Illustrator 16.0.0, SVG Export Plug-In . SVG Version: 6.00 Build 0)  -->
<!DOCTYPE svg PUBLIC "-//W3C//DTD SVG 1.1//EN" "http://www.w3.org/Graphics/SVG/1.1/DTD/svg11.dtd">
<svg version="1.1" id="Layer_1" xmlns="http://www.w3.org/2000/svg" xmlns:xlink="http://www.w3.org/1999/xlink" x="0px" y="0px"
	 width="84px" height="84px" viewBox="0 0 100 100" enable-background="new 0 0 100 100" xml:space="preserve">
<circle fill="#4B2D82" stroke="#7D4D9F" stroke-width="5" stroke-miterlimit="10" cx="50" cy="50" r="46.501"/>
<g>
	<path fill="#FFFFFF" d="M66.26,54.799c0,10.271-4.862,14.586-15.984,14.586S34.656,65.07,34.656,55.408V36.384
		c0-9.906,4.315-13.978,15.619-13.978c11.305,0,15.984,4.132,15.984,14.525h-8.388c0-4.559-1.094-7.111-7.597-7.111
		c-6.077,0-7.232,2.552-7.232,6.989v18.172c0,4.436,1.155,6.988,7.232,6.988c6.078,0,7.597-2.553,7.597-7.172H66.26z"/>
</g>
<g>
</g>
<g>
</g>
<g>
</g>
<g>
</g>
<g>
</g>
<g>
</g>
</svg>
